<?xml version="1.0" encoding="utf-8"?>
<svg xmlns="http://www.w3.org/2000/svg"
	xmlns:xlink="http://www.w3.org/1999/xlink"
	width="13px" height="8px" viewBox="0 0 13 8">
<path fillRule="evenodd" d="M 6.41 7.91C 6.26 7.91 6.12 7.85 6.02 7.74 6.02 7.74 0.18 1.36 0.18 1.36-0.01 1.15-0 0.81 0.22 0.61 0.43 0.41 0.77 0.43 0.97 0.65 0.97 0.65 6.41 6.59 6.41 6.59 6.41 6.59 11.85 0.65 11.85 0.65 12.05 0.43 12.39 0.41 12.6 0.61 12.82 0.81 12.83 1.15 12.64 1.36 12.64 1.36 6.8 7.74 6.8 7.74 6.7 7.85 6.56 7.91 6.41 7.91Z" fill="rgb(0,0,0)"/></svg>